NaiveBayesExample.class
KMeansExample$ParseTitle.class
KMeansExample$PrintCluster.class
NaiveBayesExample$2.class
KMeansExample.class
KMeansExample$1.class
KMeansExample$ClusterCars.class
KMeansExample$ParsePoint.class
NaiveBayesExample$1.class
NaiveBayesExample$DataToPoint.class
